Introducción a R Clase 5 dplyr – Curso
…
Este código selecciona únicamente los pingüinos cuya profundidad del pico es mayor a 16.2 mm.

Filtrar usando between()

penguins %>%
  filter(between(bill_depth_mm, 16.2, 18.1))

# A tibble: 108 × 8
   species island    bill_length_mm bill_depth_mm flipper_length_mm body_mass_g
   <fct>   <fct>              <dbl>         <dbl>             <int>       <int>
 1 Adelie  Torgersen           39.5          17.4               186        3800
 2 Adelie  Torgersen           40.3          18                 195        3250
 3 Adelie  Torgersen           38.9          17.8               181        3625
 4 Adelie  Torgersen           34.1          18.1               193        3475
 5 Adelie  Torgersen           37.8          17.1               186        3300
 6 Adelie  Torgersen           37.8          17.3               180        3700
 7 Adelie  Torgersen           41.1          17.6               182        3200
 8 Adelie  Torgersen           36.6          17.8               185        3700
 9 Adelie  Biscoe              38.2          18.1               185        3950
10 Adelie  Biscoe              38.8          17.2               180        3800
# ℹ 98 more rows
# ℹ 2 more variables: sex <fct>, year <int>
…
